How not to be engulfed by MAGMA: instructions and model descriptions
…
readr::read_table("data/group_namesFAKE.txt")
#> # A tibble: 4 × 1
#>   D1     
#>   <chr>  
#> 1 Koyukuk
#> 2 Tanana 
#> 3 UpperUS
#> 4 Canada

readr::read_table("data/groupsFAKE.txt")
#> # A tibble: 43 × 2
#>    SOURCE                                 D1
#>    <chr>                               <dbl>
#>  1 KHENS01                                 1
#>  2 KHENS07.KHENS15                         1
#>  3 KSFKOY03                                1
#>  4 KMFKOY10.KMFKOY11.KMFKOY12.KMFKOY13     1
#>  5 KKANT05                                 2
#>  6 KCHAT01.KCHAT07                         2
#>  7 KCHENA01                                2
#>  8 KSALC04.KSALC05                         2
#>  9 KGOODP06.KGOODP07.KGOODP11.KGOODP12     2
#> 10 KBEAV97                                 3
#> # ℹ 33 more rows
…
The items with “_prop” are the posterior
samples/simulations (i.e., trace history) for age or population
proportions in a data frame. The data frame contains output from all
MCMC chains stacked together. In this example, I run two chains with 50
iterations, burn-ins of 25, and no thinning. Because I chose to keep the
burn-ins, the results are 50 rows of output in each chain. Stacking the
two chains we end up with 100 rows of posterior samples.

magma_summ$age_prop
#> $D1_Koyukuk
#> # A tibble: 100 × 9
#>      itr chain     other     `13`     `21`    `22`  `23`  `31`     `32`
#>    <dbl> <chr>     <dbl>    <dbl>    <dbl>   <dbl> <dbl> <dbl>    <dbl>
#>  1     1 ch1   6.68e-308 0.0130   0.0877   0.0565  0.518 0.279 0.0458  
#>  2     2 ch1   6.68e-308 0.0116   0.141    0.0212  0.644 0.167 0.0160  
#>  3     3 ch1   6.68e-308 0.0260   0.0546   0.0554  0.405 0.458 0.000940
#>  4     4 ch1   6.68e-308 0.0303   0.00134  0.00621 0.714 0.245 0.00280 
#>  5     5 ch1   6.68e-308 0.00100  0.0130   0.100   0.534 0.295 0.0568  
#>  6     6 ch1   6.68e-308 0.0438   0.000473 0.130   0.637 0.187 0.00189 
#>  7     7 ch1   6.68e-308 0.000146 0.00955  0.0390  0.590 0.350 0.0112  
#>  8     8 ch1   6.68e-308 0.000157 0.0361   0.193   0.494 0.275 0.00143 
#>  9     9 ch1   6.68e-308 0.111    0.0159   0.0286  0.517 0.218 0.109   
#> 10    10 ch1   6.68e-308 0.0152   0.00643  0.139   0.492 0.342 0.00582 
#> # ℹ 90 more rows
#> 
#> $D1_Tanana
#> # A tibble: 100 × 9
#>      itr chain     other   `13`   `21`  `22`  `23`    `31`     `32`
#>    <dbl> <chr>     <dbl>  <dbl>  <dbl> <dbl> <dbl>   <dbl>    <dbl>
#>  1     1 ch1   6.68e-308 0.0559 0.0875 0.241 0.414 0.0323  0.169   
#>  2     2 ch1   6.68e-308 0.0562 0.127  0.329 0.390 0.0254  0.0716  
#>  3     3 ch1   6.68e-308 0.0508 0.190  0.262 0.348 0.130   0.0186  
#>  4     4 ch1   6.68e-308 0.0252 0.205  0.247 0.500 0.00401 0.0188  
#>  5     5 ch1   6.68e-308 0.0115 0.172  0.271 0.529 0.00267 0.0142  
#>  6     6 ch1   6.68e-308 0.0633 0.117  0.378 0.343 0.0906  0.00813 
#>  7     7 ch1   6.68e-308 0.0685 0.215  0.325 0.325 0.0411  0.0250  
#>  8     8 ch1   4.12e-277 0.0205 0.182  0.425 0.287 0.00482 0.0809  
#>  9     9 ch1   6.68e-308 0.0440 0.201  0.271 0.425 0.0446  0.0145  
#> 10    10 ch1   6.68e-308 0.0221 0.0915 0.387 0.497 0.00318 0.000118
#> # ℹ 90 more rows
#> 
#> $D1_UpperUS
#> # A tibble: 100 × 9
#>      itr chain     other    `13`      `21`  `22`   `23`     `31`  `32`
#>    <dbl> <chr>     <dbl>   <dbl>     <dbl> <dbl>  <dbl>    <dbl> <dbl>
#>  1     1 ch1   6.68e-308 0.0241  0.0000357 0.241 0.152  0.00503  0.578
#>  2     2 ch1   6.68e-308 0.00205 0.0618    0.319 0.0987 0.000187 0.519
#>  3     3 ch1   6.68e-308 0.00480 0.00134   0.296 0.338  0.00319  0.356
#>  4     4 ch1   6.68e-308 0.00197 0.0262    0.114 0.402  0.0564   0.400
#>  5     5 ch1   6.68e-308 0.0370  0.0266    0.377 0.161  0.0770   0.321
#>  6     6 ch1   6.68e-308 0.00700 0.0194    0.411 0.113  0.0296   0.419
#>  7     7 ch1   6.68e-308 0.00144 0.00219   0.180 0.121  0.00292  0.693
#>  8     8 ch1   6.68e-308 0.00669 0.0129    0.387 0.140  0.00547  0.448
#>  9     9 ch1   6.68e-308 0.00295 0.0153    0.283 0.203  0.00836  0.488
#> 10    10 ch1   6.68e-308 0.00704 0.0483    0.402 0.0655 0.000515 0.477
#> # ℹ 90 more rows
#> 
#> $D1_Canada
#> # A tibble: 100 × 9
#>      itr chain     other   `13`   `21`  `22`  `23`    `31`   `32`
#>    <dbl> <chr>     <dbl>  <dbl>  <dbl> <dbl> <dbl>   <dbl>  <dbl>
#>  1     1 ch1   1.86e-  9 0.0971 0.0949 0.299 0.327 0.104   0.0787
#>  2     2 ch1   6.67e-308 0.0513 0.135  0.361 0.348 0.0490  0.0558
#>  3     3 ch1   2.55e-154 0.0658 0.144  0.207 0.461 0.0123  0.110 
#>  4     4 ch1   6.68e-308 0.0488 0.146  0.367 0.394 0.0235  0.0210
#>  5     5 ch1   1.01e-172 0.0258 0.203  0.450 0.267 0.0259  0.0291
#>  6     6 ch1   6.62e-308 0.0520 0.238  0.474 0.211 0.00594 0.0189
#>  7     7 ch1   6.68e-308 0.0464 0.215  0.307 0.385 0.0189  0.0276
#>  8     8 ch1   6.68e-308 0.0218 0.130  0.364 0.343 0.0510  0.0894
#>  9     9 ch1   4.81e-161 0.0553 0.172  0.333 0.396 0.00748 0.0366
#> 10    10 ch1   7.27e-113 0.0430 0.0926 0.429 0.288 0.0592  0.0878
#> # ℹ 90 more rows
…
Individual (group membership) assignment

magmatize_indiv() summarizes the posterior means of
group membership for each individual in the metadata. The probability
output can be organized in populations or combined into reporting groups
(for single districts only).

magma_indiv <- magmatize_indiv(ma_out = freak_out, ma_dat = yomamafat, out_repunit = TRUE)
#> Combining populations using reporting groups of district 1.

magma_indiv
#> # A tibble: 149 × 5
#>    indiv           Koyukuk Tanana UpperUS Canada
#>  * <chr>             <dbl>  <dbl>   <dbl>  <dbl>
#>  1 FAKE_KBEAV97_22       0   0       1      0   
#>  2 FAKE_KBEAV97_31       0   0       1      0   
#>  3 FAKE_KBEAV97_46       0   0       1      0   
#>  4 FAKE_KBEAV97_60       0   0       1      0   
#>  5 FAKE_KBEAV97_64       0   0       1      0   
#>  6 FAKE_KBEAV97_73       0   0       1      0   
#>  7 FAKE_KBEAV97_81       0   0       1      0   
#>  8 FAKE_KCHAN02_2        0   0.05    0.95   0   
#>  9 FAKE_KCHAN04_1        0   0       0.96   0.04
#> 10 FAKE_KCHAN04_16       0   0       1      0   
#> # ℹ 139 more rows
…
