…
``` r
readr::read_table("data/group_namesFAKE.txt")
#> # A tibble: 4 × 1
#>   D1     
#>   <chr>  
#> 1 Koyukuk
#> 2 Tanana 
#> 3 UpperUS
#> 4 Canada

readr::read_table("data/groupsFAKE.txt")
#> # A tibble: 43 × 2
#>    SOURCE                                 D1
#>    <chr>                               <dbl>
#>  1 KHENS01                                 1
#>  2 KHENS07.KHENS15                         1
#>  3 KSFKOY03                                1
#>  4 KMFKOY10.KMFKOY11.KMFKOY12.KMFKOY13     1
#>  5 KKANT05                                 2
#>  6 KCHAT01.KCHAT07                         2
#>  7 KCHENA01                                2
#>  8 KSALC04.KSALC05                         2
#>  9 KGOODP06.KGOODP07.KGOODP11.KGOODP12     2
#> 10 KBEAV97                                 3
#> # ℹ 33 more rows
```
…
The items with “`_prop`” are the posterior samples/simulations (i.e.,
trace history) for age or population proportions in a data frame. The
data frame contains output from all MCMC chains stacked together. In
this example, I run two chains with 50 iterations, burn-ins of 25, and
no thinning. Because I chose to keep the burn-ins, the results are 50
rows of output in each chain. Stacking the two chains we end up with 100
rows of posterior samples.

``` r
magma_summ$age_prop
#> $D1_Koyukuk
#> # A tibble: 100 × 9
#>      itr chain     other     `13`    `21`    `22`  `23`  `31`      `32`
#>    <dbl> <chr>     <dbl>    <dbl>   <dbl>   <dbl> <dbl> <dbl>     <dbl>
#>  1     1 ch1   6.68e-308 0.000118 0.0887  0.0750  0.424 0.382 0.0301   
#>  2     2 ch1   6.68e-308 0.0354   0.128   0.0426  0.505 0.289 0.000389 
#>  3     3 ch1   6.68e-308 0.0455   0.0482  0.105   0.624 0.141 0.0355   
#>  4     4 ch1   6.68e-308 0.0161   0.00362 0.00991 0.778 0.160 0.0322   
#>  5     5 ch1   6.68e-308 0.00844  0.0292  0.0234  0.490 0.449 0.000123 
#>  6     6 ch1   6.68e-308 0.00120  0.0261  0.0512  0.762 0.152 0.00674  
#>  7     7 ch1   6.68e-308 0.00861  0.00136 0.0424  0.521 0.426 0.0000256
#>  8     8 ch1   6.68e-308 0.00198  0.0358  0.135   0.624 0.203 0.0000974
#>  9     9 ch1   9.41e-179 0.190    0.00594 0.0595  0.487 0.253 0.00494  
#> 10    10 ch1   6.68e-308 0.00261  0.00844 0.103   0.458 0.429 0.000293 
#> # ℹ 90 more rows
#> 
#> $D1_Tanana
#> # A tibble: 100 × 9
#>      itr chain     other   `13`   `21`  `22`  `23`   `31`    `32`
#>    <dbl> <chr>     <dbl>  <dbl>  <dbl> <dbl> <dbl>  <dbl>   <dbl>
#>  1     1 ch1   6.68e-308 0.0567 0.165  0.291 0.363 0.0482 0.0752 
#>  2     2 ch1   6.68e-308 0.0209 0.145  0.271 0.473 0.0751 0.0151 
#>  3     3 ch1   6.68e-308 0.0130 0.202  0.366 0.317 0.0584 0.0442 
#>  4     4 ch1   6.68e-308 0.0452 0.261  0.288 0.348 0.0307 0.0271 
#>  5     5 ch1   6.68e-308 0.0585 0.229  0.304 0.390 0.0157 0.00287
#>  6     6 ch1   6.68e-308 0.0608 0.194  0.277 0.369 0.0964 0.00253
#>  7     7 ch1   6.68e-308 0.100  0.186  0.227 0.410 0.0367 0.0396 
#>  8     8 ch1   6.68e-308 0.0108 0.252  0.281 0.350 0.0918 0.0141 
#>  9     9 ch1   6.68e-308 0.0159 0.200  0.309 0.311 0.163  0.00188
#> 10    10 ch1   6.68e-308 0.0188 0.0904 0.270 0.587 0.0195 0.0143 
#> # ℹ 90 more rows
#> 
#> $D1_UpperUS
#> # A tibble: 100 × 9
#>      itr chain     other     `13`    `21`  `22`  `23`    `31`  `32`
#>    <dbl> <chr>     <dbl>    <dbl>   <dbl> <dbl> <dbl>   <dbl> <dbl>
#>  1     1 ch1   6.68e-308 0.0119   0.0804  0.146 0.216 0.0139  0.531
#>  2     2 ch1   6.68e-308 0.000790 0.0285  0.345 0.185 0.0409  0.400
#>  3     3 ch1   6.68e-308 0.0770   0.00702 0.333 0.125 0.00733 0.451
#>  4     4 ch1   6.68e-308 0.0392   0.0676  0.164 0.184 0.0803  0.464
#>  5     5 ch1   6.68e-308 0.0233   0.0458  0.198 0.261 0.0266  0.445
#>  6     6 ch1   6.68e-308 0.0140   0.0339  0.225 0.113 0.0403  0.573
#>  7     7 ch1   6.68e-308 0.0158   0.0466  0.342 0.129 0.0354  0.430
#>  8     8 ch1   6.68e-308 0.0161   0.0473  0.514 0.117 0.00139 0.305
#>  9     9 ch1   6.68e-308 0.0130   0.00378 0.412 0.177 0.0122  0.382
#> 10    10 ch1   6.68e-308 0.00234  0.0165  0.266 0.220 0.0151  0.481
#> # ℹ 90 more rows
#> 
#> $D1_Canada
#> # A tibble: 100 × 9
#>      itr chain     other   `13`   `21`  `22`  `23`   `31`   `32`
#>    <dbl> <chr>     <dbl>  <dbl>  <dbl> <dbl> <dbl>  <dbl>  <dbl>
#>  1     1 ch1   6.68e-308 0.119  0.109  0.342 0.255 0.0303 0.144 
#>  2     2 ch1   6.68e-308 0.0455 0.0893 0.481 0.304 0.0279 0.0521
#>  3     3 ch1   6.68e-308 0.107  0.0943 0.345 0.366 0.0364 0.0519
#>  4     4 ch1   9.77e- 66 0.0733 0.0692 0.186 0.614 0.0284 0.0301
#>  5     5 ch1   6.68e-308 0.0630 0.0716 0.354 0.433 0.0321 0.0463
#>  6     6 ch1   6.68e-308 0.0852 0.146  0.274 0.395 0.0498 0.0506
#>  7     7 ch1   6.68e-308 0.0279 0.138  0.382 0.358 0.0245 0.0689
#>  8     8 ch1   6.68e-308 0.0453 0.0763 0.436 0.354 0.0224 0.0666
#>  9     9 ch1   1.91e-202 0.0581 0.0962 0.468 0.317 0.0378 0.0232
#> 10    10 ch1   3.73e-152 0.0293 0.209  0.302 0.418 0.0220 0.0200
#> # ℹ 90 more rows
```
…
#### Individual (group membership) assignment

[`magmatize_indiv()`](https://boppingshoe.github.io/magma.gsi/reference/magmatize_indiv.md)
summarizes the posterior means of group membership for each individual
in the metadata. The probability output can be organized in populations
or combined into reporting groups (for single districts only).

``` r
magma_indiv <- magmatize_indiv(ma_out = freak_out, ma_dat = yomamafat, out_repunit = TRUE)
#> Combining populations using reporting groups of district 1.

magma_indiv
#> # A tibble: 149 × 5
#>    indiv           Koyukuk Tanana UpperUS Canada
#>  * <chr>             <dbl>  <dbl>   <dbl>  <dbl>
#>  1 FAKE_KBEAV97_22    0      0       1      0   
#>  2 FAKE_KBEAV97_31    0      0       1      0   
#>  3 FAKE_KBEAV97_46    0      0       1      0   
#>  4 FAKE_KBEAV97_60    0      0       1      0   
#>  5 FAKE_KBEAV97_64    0      0       1      0   
#>  6 FAKE_KBEAV97_73    0      0       1      0   
#>  7 FAKE_KBEAV97_81    0      0       1      0   
#>  8 FAKE_KCHAN02_2     0.01   0.05    0.94   0   
#>  9 FAKE_KCHAN04_1     0      0       0.91   0.09
#> 10 FAKE_KCHAN04_16    0      0       1      0   
#> # ℹ 139 more rows
```
…
